{
  "name": "CRMUser",
  "base": "User",
  "idInjection": true,
  "validateUpsert": true,
  "properties": {
    "realm": null,
    "username": null,
    "emailVerified": null,
    "verificationToken": null,
    "isAdmin": {
      "type": "boolean",
      "required": false
    }
  },
  "validations": [],
  "relations": {
  },
  "acls": [
    {
      "accessType": "*",
      "principalType": "ROLE",
      "principalId": "$everyone",
      "permission": "ALLOW",
      "property": "deleteById"
    },
    {
      "accessType": "*",
      "principalType": "ROLE",
      "principalId": "$everyone",
      "permission": "ALLOW",
      "property": "patchAttributes"
    },
    {
      "accessType": "*",
      "principalType": "ROLE",
      "principalId": "$everyone",
      "permission": "ALLOW",
      "property": "find"
    }
  ],
  "methods": [],
  "http": {
    "path": "crm-users"
  }
}
